<?xml version="1.0" encoding="UTF-8" standalone="no"?>
<!-- Created with Inkscape (http://www.inkscape.org/) -->

<svg
   width="1990"
   height="835.94702"
   viewBox="0 0 1990 835.94703"
   version="1.1"
   id="svg5"
   inkscape:version="1.2.1 (9c6d41e410, 2022-07-14, custom)"
   sodipodi:docname="hol-blocking-tcp.svg"
   xmlns:inkscape="http://www.inkscape.org/namespaces/inkscape"
   xmlns:sodipodi="http://sodipodi.sourceforge.net/DTD/sodipodi-0.dtd"
   xmlns:xlink="http://www.w3.org/1999/xlink"
   xmlns="http://www.w3.org/2000/svg"
   xmlns:svg="http://www.w3.org/2000/svg">
  <sodipodi:namedview
     id="namedview7"
     pagecolor="#ffffff"
     bordercolor="#000000"
     borderopacity="0.29803922"
     inkscape:pageshadow="0"
     inkscape:pageopacity="1"
     inkscape:pagecheckerboard="false"
     inkscape:document-units="px"
     showgrid="false"
     borderlayer="false"
     units="px"
     lock-margins="false"
     fit-margin-top="20"
     fit-margin-left="100"
     fit-margin-right="100"
     fit-margin-bottom="20"
     inkscape:zoom="0.41"
     inkscape:cx="863.41463"
     inkscape:cy="515.85366"
     inkscape:window-width="1278"
     inkscape:window-height="777"
     inkscape:window-x="0"
     inkscape:window-y="0"
     inkscape:window-maximized="1"
     inkscape:current-layer="layer4"
     inkscape:showpageshadow="0"
     inkscape:deskcolor="#d1d1d1" />
  <defs
     id="defs2">
    <linearGradient
       id="lightgreen900"
       inkscape:swatch="solid">
      <stop
         style="stop-color:#33691e;stop-opacity:1;"
         offset="0"
         id="stop941" />
    </linearGradient>
    <linearGradient
       id="lightblue900"
       inkscape:swatch="solid">
      <stop
         style="stop-color:#01579b;stop-opacity:1;"
         offset="0"
         id="stop933" />
    </linearGradient>
    <linearGradient
       id="orange900"
       inkscape:swatch="solid">
      <stop
         style="stop-color:#e65100;stop-opacity:1;"
         offset="0"
         id="stop924" />
    </linearGradient>
    <linearGradient
       id="lightgreen500_20"
       inkscape:swatch="solid">
      <stop
         style="stop-color:#8bc34a;stop-opacity:0.20392157;"
         offset="0"
         id="stop958" />
    </linearGradient>
    <linearGradient
       id="lightgreen500_30"
       inkscape:swatch="solid">
      <stop
         style="stop-color:#8bc34a;stop-opacity:0.3019608;"
         offset="0"
         id="stop952" />
    </linearGradient>
    <linearGradient
       id="lightgreen500"
       inkscape:swatch="solid">
      <stop
         style="stop-color:#8bc34a;stop-opacity:1;"
         offset="0"
         id="stop940" />
    </linearGradient>
    <linearGradient
       id="orange500"
       inkscape:swatch="solid">
      <stop
         style="stop-color:#ff9800;stop-opacity:1;"
         offset="0"
         id="stop930" />
    </linearGradient>
    <linearGradient
       id="lightblue500_30"
       inkscape:swatch="solid">
      <stop
         style="stop-color:#03a9f4;stop-opacity:0.29803923;"
         offset="0"
         id="stop922" />
    </linearGradient>
    <linearGradient
       id="linearGradient918">
      <stop
         style="stop-color:#03a9f4;stop-opacity:1;"
         offset="0"
         id="stop916" />
    </linearGradient>
    <linearGradient
       id="lightblue500_20"
       inkscape:swatch="solid">
      <stop
         style="stop-color:#03a9f4;stop-opacity:0.2;"
         offset="0"
         id="stop908" />
    </linearGradient>
    <linearGradient
       id="linearGradient904">
      <stop
         style="stop-color:#03a9f4;stop-opacity:1;"
         offset="0"
         id="stop902" />
    </linearGradient>
    <linearGradient
       id="linearGradient898">
      <stop
         style="stop-color:#03a9f4;stop-opacity:1;"
         offset="0"
         id="stop896" />
    </linearGradient>
    <linearGradient
       id="linearGradient892">
      <stop
         style="stop-color:#03a9f4;stop-opacity:1;"
         offset="0"
         id="stop890" />
    </linearGradient>
    <linearGradient
       id="lightblue500"
       inkscape:swatch="solid">
      <stop
         style="stop-color:#03a9f4;stop-opacity:1;"
         offset="0"
         id="stop884" />
    </linearGradient>
    <linearGradient
       inkscape:collect="always"
       id="linearGradient88033">
      <stop
         style="stop-color:#000000;stop-opacity:0.04668642"
         offset="0"
         id="stop88029" />
      <stop
         style="stop-color:#000000;stop-opacity:0.10002694"
         offset="1"
         id="stop88031" />
    </linearGradient>
    <linearGradient
       inkscape:collect="always"
       xlink:href="#linearGradient88033"
       id="linearGradient88035"
       x1="723.85284"
       y1="355.40735"
       x2="1448.8529"
       y2="355.40735"
       gradientUnits="userSpaceOnUse"
       gradientTransform="translate(-123.85286,-60.407041)" />
    <linearGradient
       inkscape:collect="always"
       xlink:href="#lightblue500"
       id="linearGradient888"
       x1="233.85286"
       y1="150.40736"
       x2="333.85287"
       y2="150.40736"
       gradientUnits="userSpaceOnUse"
       gradientTransform="translate(0,-29.999693)" />
    <linearGradient
       inkscape:collect="always"
       xlink:href="#lightblue500"
       id="linearGradient894"
       x1="333.85284"
       y1="150.40735"
       x2="433.85284"
       y2="150.40735"
       gradientUnits="userSpaceOnUse"
       gradientTransform="translate(0,-29.999693)" />
    <linearGradient
       inkscape:collect="always"
       xlink:href="#lightblue500"
       id="linearGradient900"
       x1="433.85284"
       y1="150.40735"
       x2="533.85284"
       y2="150.40735"
       gradientUnits="userSpaceOnUse"
       gradientTransform="translate(0,-29.999693)" />
    <linearGradient
       inkscape:collect="always"
       xlink:href="#lightblue500"
       id="linearGradient906"
       x1="1623.8529"
       y1="150.40736"
       x2="1723.8529"
       y2="150.40736"
       gradientUnits="userSpaceOnUse"
       gradientTransform="translate(0,-29.999693)" />
    <linearGradient
       inkscape:collect="always"
       xlink:href="#lightblue500_20"
       id="linearGradient912"
       x1="1823.8529"
       y1="150.40735"
       x2="1923.8529"
       y2="150.40735"
       gradientUnits="userSpaceOnUse"
       gradientTransform="translate(0,-29.999693)" />
    <linearGradient
       inkscape:collect="always"
       xlink:href="#lightblue500_20"
       id="linearGradient914"
       x1="1723.8529"
       y1="150.40735"
       x2="1823.8529"
       y2="150.40735"
       gradientUnits="userSpaceOnUse"
       gradientTransform="translate(0,-29.999693)" />
    <linearGradient
       inkscape:collect="always"
       xlink:href="#lightblue500"
       id="linearGradient920"
       x1="1273.8529"
       y1="355.40735"
       x2="1373.8529"
       y2="355.40735"
       gradientUnits="userSpaceOnUse"
       gradientTransform="translate(0,-29.999693)" />
    <linearGradient
       inkscape:collect="always"
       xlink:href="#lightblue500_30"
       id="linearGradient926"
       x1="943.85284"
       y1="355.40735"
       x2="1043.8528"
       y2="355.40735"
       gradientUnits="userSpaceOnUse"
       gradientTransform="translate(0,-29.999693)" />
    <linearGradient
       inkscape:collect="always"
       xlink:href="#lightblue500_30"
       id="linearGradient928"
       x1="723.85284"
       y1="355.40735"
       x2="823.85284"
       y2="355.40735"
       gradientUnits="userSpaceOnUse"
       gradientTransform="translate(0,-29.999693)" />
    <linearGradient
       inkscape:collect="always"
       xlink:href="#orange500"
       id="linearGradient934"
       x1="233.85286"
       y1="360.40735"
       x2="333.85287"
       y2="360.40735"
       gradientUnits="userSpaceOnUse"
       gradientTransform="translate(0,-29.999693)" />
    <linearGradient
       inkscape:collect="always"
       xlink:href="#orange500"
       id="linearGradient936"
       x1="1163.8529"
       y1="355.40735"
       x2="1263.8529"
       y2="355.40735"
       gradientUnits="userSpaceOnUse"
       gradientTransform="translate(0,-29.999693)" />
    <linearGradient
       inkscape:collect="always"
       xlink:href="#orange500"
       id="linearGradient938"
       x1="1623.8529"
       y1="360.40735"
       x2="1723.8529"
       y2="360.40735"
       gradientUnits="userSpaceOnUse"
       gradientTransform="translate(0,-29.999693)" />
    <linearGradient
       inkscape:collect="always"
       xlink:href="#lightgreen500"
       id="linearGradient944"
       x1="333.85284"
       y1="570.40735"
       x2="433.85284"
       y2="570.40735"
       gradientUnits="userSpaceOnUse"
       gradientTransform="translate(0,-29.999693)" />
    <linearGradient
       inkscape:collect="always"
       xlink:href="#lightgreen500"
       id="linearGradient946"
       x1="233.85286"
       y1="570.40735"
       x2="333.85287"
       y2="570.40735"
       gradientUnits="userSpaceOnUse"
       gradientTransform="translate(0,-29.999693)" />
    <linearGradient
       inkscape:collect="always"
       xlink:href="#lightgreen500"
       id="linearGradient948"
       x1="1623.8529"
       y1="570.40735"
       x2="1723.8529"
       y2="570.40735"
       gradientUnits="userSpaceOnUse"
       gradientTransform="translate(0,-29.999693)" />
    <linearGradient
       inkscape:collect="always"
       xlink:href="#lightgreen500"
       id="linearGradient950"
       x1="1053.8529"
       y1="355.40735"
       x2="1153.8529"
       y2="355.40735"
       gradientUnits="userSpaceOnUse"
       gradientTransform="translate(0,-29.999693)" />
    <linearGradient
       inkscape:collect="always"
       xlink:href="#lightgreen500_30"
       id="linearGradient956"
       x1="833.85284"
       y1="355.40735"
       x2="933.85284"
       y2="355.40735"
       gradientUnits="userSpaceOnUse"
       gradientTransform="translate(0,-29.999693)" />
    <linearGradient
       inkscape:collect="always"
       xlink:href="#lightgreen500_20"
       id="linearGradient962"
       x1="1723.8529"
       y1="570.40735"
       x2="1823.8529"
       y2="570.40735"
       gradientUnits="userSpaceOnUse"
       gradientTransform="translate(0,-29.999693)" />
    <linearGradient
       inkscape:collect="always"
       xlink:href="#lightblue900"
       id="linearGradient1523"
       gradientUnits="userSpaceOnUse"
       gradientTransform="translate(0,-29.999693)"
       x1="233.85286"
       y1="55.087349"
       x2="420.17285"
       y2="55.087349" />
    <linearGradient
       inkscape:collect="always"
       xlink:href="#orange900"
       id="linearGradient1525"
       gradientUnits="userSpaceOnUse"
       gradientTransform="translate(0,-29.999693)"
       x1="233.85286"
       y1="265.08734"
       x2="420.93286"
       y2="265.08734" />
    <linearGradient
       inkscape:collect="always"
       xlink:href="#lightgreen900"
       id="linearGradient1527"
       gradientUnits="userSpaceOnUse"
       gradientTransform="translate(0,-29.999693)"
       x1="233.85286"
       y1="475.08734"
       x2="421.13287"
       y2="475.08734" />
    <linearGradient
       inkscape:collect="always"
       xlink:href="#lightblue900"
       id="linearGradient1529"
       gradientUnits="userSpaceOnUse"
       gradientTransform="translate(0,-29.999693)"
       x1="1623.8529"
       y1="55.087349"
       x2="1810.1729"
       y2="55.087349" />
    <linearGradient
       inkscape:collect="always"
       xlink:href="#orange900"
       id="linearGradient1531"
       gradientUnits="userSpaceOnUse"
       gradientTransform="translate(0,-29.999693)"
       x1="1623.8529"
       y1="265.08734"
       x2="1810.9329"
       y2="265.08734" />
    <linearGradient
       inkscape:collect="always"
       xlink:href="#lightgreen900"
       id="linearGradient1533"
       gradientUnits="userSpaceOnUse"
       gradientTransform="translate(0,-29.999693)"
       x1="1623.8529"
       y1="475.08734"
       x2="1811.1329"
       y2="475.08734" />
  </defs>
  <g
     inkscape:groupmode="layer"
     id="layer4"
     inkscape:label="bgs"
     transform="translate(40,205.94669)">
    <path
       style="fill:url(#linearGradient88035);fill-opacity:1;stroke:none;stroke-width:1px;stroke-linecap:butt;stroke-linejoin:miter;stroke-opacity:1"
       d="m 575,220.00031 h 525 v -100 l 250,175 -250,175 v -100 H 575 Z"
       id="path33518"
       sodipodi:nodetypes="cccccccc" />
    <rect
       style="fill:#000000;fill-opacity:0.05;stroke:none;stroke-width:0;stroke-linecap:round;stroke-miterlimit:4;stroke-dasharray:none;stroke-opacity:1"
       id="rect44515"
       width="400"
       height="670"
       x="60"
       y="-59.999691"
       ry="25.76923" />
    <rect
       style="fill:#000000;fill-opacity:0.05;stroke:none;stroke-width:0;stroke-linecap:round;stroke-miterlimit:4;stroke-dasharray:none;stroke-opacity:1"
       id="rect45513"
       width="400"
       height="670"
       x="1450"
       y="-59.999691"
       ry="25.76923" />
    <text
       xml:space="preserve"
       style="font-style:normal;font-weight:normal;font-size:40px;line-height:1.25;font-family:sans-serif;fill:#000000;fill-opacity:1;stroke:none"
       x="623.28003"
       y="448.4006"
       id="text91735"><tspan
         sodipodi:role="line"
         id="tspan91733"
         x="623.28003"
         y="448.4006"
         style="font-style:italic;font-variant:normal;font-weight:normal;font-stretch:normal;font-family:serif;-inkscape-font-specification:'serif Italic'">on hold</tspan></text>
    <path
       style="fill:none;stroke:#000000;stroke-width:8;stroke-linecap:round;stroke-linejoin:miter;stroke-miterlimit:4;stroke-dasharray:none;stroke-opacity:0.40132"
       d="M 600,400.50062 H 800"
       id="path95678"
       sodipodi:nodetypes="cc" />
    <text
       xml:space="preserve"
       style="font-style:normal;font-weight:normal;font-size:48px;line-height:1.25;font-family:sans-serif;letter-spacing:2px;word-spacing:0px;white-space:pre;inline-size:389.609;fill:#000000;fill-opacity:1;stroke:none"
       x="371.03"
       y="-248.47656"
       id="text99503"
       transform="translate(-305.72731,99.009872)"><tspan
         x="371.03"
         y="-248.47656"
         id="tspan906"><tspan
           style="font-weight:bold;font-family:serif;-inkscape-font-specification:'serif, Bold';font-variant-caps:small-caps;text-align:center;text-anchor:middle"
           id="tspan904">To Send</tspan></tspan></text>
    <text
       xml:space="preserve"
       style="font-style:normal;font-weight:normal;font-size:48px;line-height:1.25;font-family:sans-serif;letter-spacing:2px;white-space:pre;inline-size:389.609;fill:#000000;fill-opacity:1;stroke:none"
       x="371.03"
       y="-248.47656"
       id="text116775"
       transform="translate(395.65268,99.009872)"><tspan
         x="371.03"
         y="-248.47656"
         id="tspan910"><tspan
           style="font-weight:bold;font-family:serif;-inkscape-font-specification:'serif, Bold';font-variant-caps:small-caps;text-align:center;text-anchor:middle"
           id="tspan908">Channel</tspan></tspan></text>
    <text
       xml:space="preserve"
       style="font-style:normal;font-weight:normal;font-size:48px;line-height:1.25;font-family:sans-serif;letter-spacing:2px;white-space:pre;inline-size:389.609;fill:#000000;fill-opacity:1;stroke:none"
       x="371.03"
       y="-248.47656"
       id="text122539"
       transform="translate(1083.7927,99.543205)"><tspan
         x="371.03"
         y="-248.47656"
         id="tspan914"><tspan
           style="font-weight:bold;font-family:serif;-inkscape-font-specification:'serif, Bold';font-variant-caps:small-caps;text-align:center;text-anchor:middle"
           id="tspan912">Delivered</tspan></tspan></text>
  </g>
  <g
     inkscape:label="Layer 1"
     inkscape:groupmode="layer"
     id="layer1"
     transform="translate(-83.852861,175.53934)">
    <rect
       style="fill:url(#linearGradient888);fill-opacity:1;stroke-width:0;stroke-miterlimit:4;stroke-dasharray:none"
       id="rect1217"
       width="100"
       height="100"
       x="233.85286"
       y="70.407661"
       ry="20" />
    <rect
       style="fill:url(#linearGradient934);fill-opacity:1;stroke-width:0;stroke-miterlimit:4;stroke-dasharray:none"
       id="rect1324"
       width="100"
       height="100"
       x="233.85286"
       y="280.40765"
       ry="20" />
    <rect
       style="fill:url(#linearGradient946);fill-opacity:1;stroke-width:0;stroke-miterlimit:4;stroke-dasharray:none"
       id="rect1326"
       width="100"
       height="100"
       x="233.85286"
       y="490.40765"
       ry="20" />
    <rect
       style="fill:url(#linearGradient894);fill-opacity:1;stroke-width:0;stroke-miterlimit:4;stroke-dasharray:none"
       id="rect2437"
       width="100"
       height="100"
       x="333.85284"
       y="70.407654"
       ry="20" />
    <rect
       style="fill:url(#linearGradient900);fill-opacity:1;stroke-width:0;stroke-miterlimit:4;stroke-dasharray:none"
       id="rect2439"
       width="100"
       height="100"
       x="433.85284"
       y="70.407654"
       ry="20" />
    <rect
       style="fill:url(#linearGradient944);fill-opacity:1;stroke-width:0;stroke-miterlimit:4;stroke-dasharray:none"
       id="rect2447"
       width="100"
       height="100"
       x="333.85284"
       y="490.40765"
       ry="20" />
    <text
       xml:space="preserve"
       style="font-style:normal;font-weight:normal;font-size:40px;line-height:1.25;font-family:sans-serif;fill:url(#linearGradient1523);fill-opacity:1;stroke:none"
       x="231.93286"
       y="39.367657"
       id="text5709"><tspan
         sodipodi:role="line"
         id="tspan5707"
         x="231.93286"
         y="39.367657"
         style="font-style:normal;font-variant:normal;font-weight:normal;font-stretch:normal;font-family:serif;-inkscape-font-specification:serif;fill:url(#linearGradient1523);fill-opacity:1">Stream #1</tspan></text>
    <text
       xml:space="preserve"
       style="font-style:normal;font-weight:normal;font-size:40px;line-height:1.25;font-family:sans-serif;fill:url(#linearGradient1525);fill-opacity:1;stroke:none"
       x="231.93286"
       y="249.36765"
       id="text11643"><tspan
         sodipodi:role="line"
         id="tspan11641"
         x="231.93286"
         y="249.36765"
         style="font-style:normal;font-variant:normal;font-weight:normal;font-stretch:normal;font-family:serif;-inkscape-font-specification:serif;fill:url(#linearGradient1525);fill-opacity:1">Stream #2</tspan></text>
    <text
       xml:space="preserve"
       style="font-style:normal;font-weight:normal;font-size:40px;line-height:1.25;font-family:sans-serif;fill:url(#linearGradient1527);fill-opacity:1;stroke:none"
       x="231.93286"
       y="459.36765"
       id="text11647"><tspan
         sodipodi:role="line"
         id="tspan11645"
         x="231.93286"
         y="459.36765"
         style="font-style:normal;font-variant:normal;font-weight:normal;font-stretch:normal;font-family:serif;-inkscape-font-specification:serif;fill:url(#linearGradient1527);fill-opacity:1">Stream #3</tspan></text>
    <rect
       style="fill:url(#linearGradient920);fill-opacity:1;stroke-width:0;stroke-miterlimit:4;stroke-dasharray:none"
       id="rect35273"
       width="100"
       height="100"
       x="1273.8529"
       y="275.40765"
       ry="20" />
    <rect
       style="fill:url(#linearGradient936);fill-opacity:1;stroke-width:0;stroke-miterlimit:4;stroke-dasharray:none"
       id="rect35275"
       width="100"
       height="100"
       x="1163.8529"
       y="275.40765"
       ry="20" />
    <rect
       style="fill:url(#linearGradient950);fill-opacity:1;stroke-width:0;stroke-miterlimit:4;stroke-dasharray:none"
       id="rect35517"
       width="100"
       height="100"
       x="1053.8529"
       y="275.40765"
       ry="20" />
    <rect
       style="fill:url(#linearGradient926);fill-opacity:1;stroke-width:0;stroke-miterlimit:4;stroke-dasharray:none"
       id="rect35519"
       width="100"
       height="100"
       x="943.85284"
       y="275.40765"
       ry="20" />
    <rect
       style="fill:url(#linearGradient956);fill-opacity:1;stroke-width:0;stroke-miterlimit:4;stroke-dasharray:none"
       id="rect35521"
       width="100"
       height="100"
       x="833.85284"
       y="275.40765"
       ry="20" />
    <rect
       style="fill:url(#linearGradient928);fill-opacity:1;stroke-width:0;stroke-miterlimit:4;stroke-dasharray:none"
       id="rect35605"
       width="100"
       height="100"
       x="723.85284"
       y="275.40765"
       ry="20" />
    <rect
       style="fill:url(#linearGradient906);fill-opacity:1;stroke-width:0;stroke-miterlimit:4;stroke-dasharray:none"
       id="rect43577"
       width="100"
       height="100"
       x="1623.8529"
       y="70.407661"
       ry="20" />
    <rect
       style="fill:url(#linearGradient938);fill-opacity:1;stroke-width:0;stroke-miterlimit:4;stroke-dasharray:none"
       id="rect43579"
       width="100"
       height="100"
       x="1623.8529"
       y="280.40765"
       ry="20" />
    <rect
       style="fill:url(#linearGradient948);fill-opacity:1;stroke-width:0;stroke-miterlimit:4;stroke-dasharray:none"
       id="rect43581"
       width="100"
       height="100"
       x="1623.8529"
       y="490.40765"
       ry="20" />
    <rect
       style="fill:url(#linearGradient914);fill-opacity:1;stroke-width:0;stroke-miterlimit:4;stroke-dasharray:none"
       id="rect43583"
       width="100"
       height="100"
       x="1723.8529"
       y="70.407654"
       ry="20" />
    <rect
       style="fill:url(#linearGradient912);fill-opacity:1;stroke-width:0;stroke-miterlimit:4;stroke-dasharray:none"
       id="rect43585"
       width="100"
       height="100"
       x="1823.8529"
       y="70.407654"
       ry="20" />
    <rect
       style="fill:url(#linearGradient962);fill-opacity:1;stroke-width:0;stroke-miterlimit:4;stroke-dasharray:none"
       id="rect43587"
       width="100"
       height="100"
       x="1723.8529"
       y="490.40765"
       ry="20" />
    <text
       xml:space="preserve"
       style="font-style:normal;font-weight:normal;font-size:40px;line-height:1.25;font-family:sans-serif;fill:url(#linearGradient1529);fill-opacity:1;stroke:none"
       x="1621.9329"
       y="39.367657"
       id="text43591"><tspan
         sodipodi:role="line"
         id="tspan43589"
         x="1621.9329"
         y="39.367657"
         style="font-style:normal;font-variant:normal;font-weight:normal;font-stretch:normal;font-family:serif;-inkscape-font-specification:serif;fill:url(#linearGradient1529);fill-opacity:1">Stream #1</tspan></text>
    <text
       xml:space="preserve"
       style="font-style:normal;font-weight:normal;font-size:40px;line-height:1.25;font-family:sans-serif;fill:url(#linearGradient1531);fill-opacity:1;stroke:none"
       x="1621.9329"
       y="249.36765"
       id="text43595"><tspan
         sodipodi:role="line"
         id="tspan43593"
         x="1621.9329"
         y="249.36765"
         style="font-style:normal;font-variant:normal;font-weight:normal;font-stretch:normal;font-family:serif;-inkscape-font-specification:serif;fill:url(#linearGradient1531);fill-opacity:1">Stream #2</tspan></text>
    <text
       xml:space="preserve"
       style="font-style:normal;font-weight:normal;font-size:40px;line-height:1.25;font-family:sans-serif;fill:url(#linearGradient1533);fill-opacity:1;stroke:none"
       x="1621.9329"
       y="459.36765"
       id="text43599"><tspan
         sodipodi:role="line"
         id="tspan43597"
         x="1621.9329"
         y="459.36765"
         style="font-style:normal;font-variant:normal;font-weight:normal;font-stretch:normal;font-family:serif;-inkscape-font-specification:serif;fill:url(#linearGradient1533);fill-opacity:1">Stream #3</tspan></text>
    <g
       style="fill:#000000"
       id="g82433"
       transform="matrix(2.3333333,0,0,2.3333333,1843.8529,-4.5923448)">
      <path
         d="M 0,0 H 24 V 24 H 0 Z"
         fill="none"
         opacity="0.87"
         id="path82421" />
      <path
         d="M 12,2 C 6.47,2 2,6.47 2,12 2,17.53 6.47,22 12,22 17.53,22 22,17.53 22,12 22,6.47 17.53,2 12,2 Z m 4.3,14.3 c -0.39,0.39 -1.02,0.39 -1.41,0 L 12,13.41 9.11,16.3 c -0.39,0.39 -1.02,0.39 -1.41,0 -0.39,-0.39 -0.39,-1.02 0,-1.41 L 10.59,12 7.7,9.11 C 7.31,8.72 7.31,8.09 7.7,7.7 8.09,7.31 8.72,7.31 9.11,7.7 L 12,10.59 14.89,7.7 c 0.39,-0.39 1.02,-0.39 1.41,0 0.39,0.39 0.39,1.02 0,1.41 L 13.41,12 16.3,14.89 c 0.38,0.38 0.38,1.02 0,1.41 z"
         id="path82423"
         style="fill:#e53935;fill-opacity:1;stroke-width:0;stroke-miterlimit:4;stroke-dasharray:none" />
    </g>
    <g
       style="fill:#000000"
       id="g82447"
       transform="matrix(2.3333333,0,0,2.3333333,1843.8529,205.40766)">
      <path
         d="M 0,0 H 24 V 24 H 0 Z"
         fill="none"
         id="path82435" />
      <path
         d="M 12,2 C 6.48,2 2,6.48 2,12 2,17.52 6.48,22 12,22 17.52,22 22,17.52 22,12 22,6.48 17.52,2 12,2 Z M 9.29,16.29 5.7,12.7 c -0.39,-0.39 -0.39,-1.02 0,-1.41 0.39,-0.39 1.02,-0.39 1.41,0 L 10,14.17 16.88,7.29 c 0.39,-0.39 1.02,-0.39 1.41,0 0.39,0.39 0.39,1.02 0,1.41 l -7.59,7.59 c -0.38,0.39 -1.02,0.39 -1.41,0 z"
         id="path82437"
         style="fill:#7cb342;fill-opacity:1" />
    </g>
    <g
       style="fill:#000000"
       id="g82453"
       transform="matrix(2.3333333,0,0,2.3333333,1843.8529,415.40766)">
      <path
         d="M 0,0 H 24 V 24 H 0 Z"
         fill="none"
         opacity="0.87"
         id="path82449" />
      <path
         d="M 12,2 C 6.47,2 2,6.47 2,12 2,17.53 6.47,22 12,22 17.53,22 22,17.53 22,12 22,6.47 17.53,2 12,2 Z m 4.3,14.3 c -0.39,0.39 -1.02,0.39 -1.41,0 L 12,13.41 9.11,16.3 c -0.39,0.39 -1.02,0.39 -1.41,0 -0.39,-0.39 -0.39,-1.02 0,-1.41 L 10.59,12 7.7,9.11 C 7.31,8.72 7.31,8.09 7.7,7.7 8.09,7.31 8.72,7.31 9.11,7.7 L 12,10.59 14.89,7.7 c 0.39,-0.39 1.02,-0.39 1.41,0 0.39,0.39 0.39,1.02 0,1.41 L 13.41,12 16.3,14.89 c 0.38,0.38 0.38,1.02 0,1.41 z"
         id="path82451"
         style="fill:#e53935;fill-opacity:1" />
    </g>
  </g>
  <g
     inkscape:groupmode="layer"
     id="layer3"
     inkscape:label="Layer 2"
     transform="translate(40,205.94669)">
    <g
       id="g38008"
       transform="translate(-205,-29.999693)">
      <path
         style="fill:none;stroke:#ff0000;stroke-width:14;stroke-linecap:round;stroke-linejoin:miter;stroke-miterlimit:4;stroke-dasharray:none;stroke-opacity:1"
         d="m 1012.5,262.5 124.9999,125"
         id="path36229"
         sodipodi:nodetypes="cc" />
      <path
         style="fill:none;stroke:#ff0000;stroke-width:14;stroke-linecap:round;stroke-linejoin:miter;stroke-miterlimit:4;stroke-dasharray:none;stroke-opacity:1"
         d="M 1137.4999,262.5 1012.5,387.5"
         id="path36231"
         sodipodi:nodetypes="cc" />
    </g>
  </g>
</svg>
